{
    "fluentMethods": true,
    "clientRootFolder": "",
    "relationships": [],
    "fields": [
        {
            "fieldName": "name",
            "fieldType": "String",
            "fieldValidateRules": [
                "required"
            ]
        },
        {
            "fieldName": "street",
            "fieldType": "String"
        },
        {
            "fieldName": "streetNumber",
            "fieldType": "String"
        },
        {
            "fieldName": "township",
            "fieldType": "String"
        },
        {
            "fieldName": "postalCode",
            "fieldType": "String"
        },
        {
            "fieldName": "country",
            "fieldType": "String"
        },
        {
            "fieldName": "paypalAccount",
            "fieldType": "String"
        }
    ],
    "changelogDate": "20200426112646",
    "dto": "no",
    "searchEngine": false,
    "service": "serviceClass",
    "entityTableName": "helpee",
    "databaseType": "sql",
    "readOnly": false,
    "jpaMetamodelFiltering": false,
    "pagination": "pagination"
}
