id;name;paypal_account
1;Estates;Coordinator
2;Tactics lime;invoice scale Designer
3;vortals Future-proofed;Sleek Sports model
4;Profound South Georgia and the South Sandwich Islands hacking;parsing User-friendly override
5;Incredible Wooden Table;navigating
6;Principal;TCP
7;turquoise;Czech Republic
8;Focused;Clothing
9;Nakfa;XSS incentivize web-enabled
10;Beauty rich Fantastic Fresh Towels;productize Wooden
